<?xml version="1.0" encoding="utf-8"?>
<!-- Generator: Adobe Illustrator 22.1.0, SVG Export Plug-In . SVG Version: 6.00 Build 0)  -->
<svg version="1.1" id="圖層_1" xmlns="http://www.w3.org/2000/svg" xmlns:xlink="http://www.w3.org/1999/xlink" x="0px" y="0px"
	 viewBox="0 0 80 80" style="enable-background:new 0 0 80 80;" xml:space="preserve">
<style type="text/css">
	.st0{fill:#004DA0;}
	.st1{fill:none;stroke:#344154;stroke-width:3;stroke-linecap:round;stroke-miterlimit:10;}
	.st2{fill:none;stroke:#344154;stroke-width:3;stroke-linecap:round;stroke-linejoin:round;stroke-miterlimit:10;}
</style>
<g>
	<path class="st0" d="M71.2,61.3L54.8,44.9l-9.9,9.9l16.4,16.4c2.7,2.7,7.1,2.7,9.9,0C73.9,68.4,73.9,64,71.2,61.3z"/>
	<line class="st1" x1="71.2" y1="71.2" x2="49.8" y2="49.8"/>
	<path class="st1" d="M35.5,11.7c-4-4-9.6-5.6-14.9-4.7l8.4,8.4l-2.9,10.7L15.4,29l-8.4-8.4c-0.9,5.2,0.6,10.8,4.7,14.9
		c4.8,4.8,11.8,6.1,17.8,3.9l31.7,31.7c2.7,2.7,7.1,2.7,9.9,0c2.7-2.7,2.7-7.1,0-9.9L39.4,29.5C41.6,23.5,40.4,16.5,35.5,11.7z"/>
	<polygon class="st1" points="13,19.5 14.4,14.3 19.6,12.9 23.4,16.8 22,22 16.8,23.4 	"/>
	<g>
		<path class="st2" d="M14.8,66.1l-5.5,5c0,0,3.3,2.1,9,2.1c5.7,0,9-2.1,9-2.1l-5.5-5"/>
		<path class="st2" d="M19.5,53.6h-2.6c-1.2,0-2.1,0.9-2.1,2.1v10.4h6.9V55.8C21.6,54.6,20.7,53.6,19.5,53.6z"/>
		<line class="st2" x1="14.8" y1="59.4" x2="21.6" y2="55.4"/>
		<line class="st2" x1="14.8" y1="64.4" x2="21.6" y2="60.3"/>
	</g>
</g>
</svg>
